﻿<?xml version="1.0" encoding="UTF-8"?>
<!-- Generator: OCAD Version 12.4.0 -->
<kml xmlns="http://www.opengis.net/kml/2.2">
<Folder>
	<name></name>
	<GroundOverlay>
		<name>tile_0_0.jpg</name>
		<drawOrder>75</drawOrder>
		<Icon>
			<href>files/tile_0_0.jpg</href>
			<viewBoundScale>0.75</viewBoundScale>
		</Icon>
		<LatLonBox>
			<north>49.293785620</north>
			<south>49.269873800</south>
			<east>-0.684774432</east>
			<west>-0.723559024</west>
			<rotation>2.701217464</rotation>
		</LatLonBox>
	</GroundOverlay>
</Folder>
</kml>
